---
http_interactions:
- request:
    method: get
    uri: https://dennis.localhost/api/v1/groups?_arguments=%7B%22page%22:2,%22per_page%22:2%7D
    body:
      encoding: US-ASCII
      string: ''
    headers:
      Accept-Encoding:
      - gzip;q=1.0,deflate;q=0.6,identity;q=0.3
      Accept:
      - "*/*"
      User-Agent:
      - Ruby
      Authorization:
      - Bearer test
  response:
    status:
      code: 200
      message: OK
    headers:
      Access-Control-Allow-Methods:
      - "*"
      Access-Control-Allow-Origin:
      - "*"
      Alt-Svc:
      - h3=":443"; ma=2592000
      Cache-Control:
      - max-age=0, private, must-revalidate
      Content-Length:
      - '793'
      Content-Type:
      - application/json
      Etag:
      - W/"cbee8d8f9e90858f15b32e54fc4b8b92"
      Server:
      - Caddy
      Server-Timing:
      - sql.active_record;dur=7.03, instantiation.active_record;dur=0.09
      X-Request-Id:
      - 0c7dd6d4-551c-417a-ae69-d2c4b6319f05
      X-Runtime:
      - '0.013398'
      Date:
      - Mon, 11 Nov 2024 12:07:20 GMT
    body:
      encoding: UTF-8
      string: '{"pagination":{"current_page":2,"total_pages":2,"total":4,"per_page":2,"large_set":false},"groups":[{"id":3,"name":"Pear
        Group","external_reference":null,"created_at":1731326830,"updated_at":1731326830,"nameservers":[{"id":2,"name":"alex.example.com","server":1,"available":true,"created_at":1731326829,"updated_at":1731326829},{"id":5,"name":"laura.example.com","server":2,"available":true,"created_at":1731326829,"updated_at":1731326829}]},{"id":4,"name":"Strawberries
        Group","external_reference":null,"created_at":1731326830,"updated_at":1731326830,"nameservers":[{"id":1,"name":"simon.example.com","server":1,"available":true,"created_at":1731326829,"updated_at":1731326829},{"id":4,"name":"ruth.example.com","server":2,"available":true,"created_at":1731326829,"updated_at":1731326829}]}]}'
  recorded_at: Mon, 11 Nov 2024 12:07:20 GMT
recorded_with: VCR 6.3.1
