---
http_interactions:
- request:
    method: get
    uri: https://dennis.dev.adam.ac/api/v1/zones?_arguments=%7B%22page%22:2,%22per_page%22:2%7D
    body:
      encoding: US-ASCII
      string: ''
    headers:
      Accept-Encoding:
      - gzip;q=1.0,deflate;q=0.6,identity;q=0.3
      Accept:
      - "*/*"
      User-Agent:
      - Ruby
      Authorization:
      - Bearer test
  response:
    status:
      code: 200
      message: OK
    headers:
      Access-Control-Allow-Methods:
      - "*"
      Access-Control-Allow-Origin:
      - "*"
      Cache-Control:
      - max-age=0, private, must-revalidate
      Content-Length:
      - '873'
      Content-Type:
      - application/json
      Etag:
      - W/"66b5f48e67757e89a49f36d79e0000e1"
      Server:
      - Caddy
      X-Request-Id:
      - 288d033a-61a0-4550-be49-98a5136da765
      X-Runtime:
      - '0.014617'
      Date:
      - Thu, 22 Apr 2021 16:31:36 GMT
    body:
      encoding: UTF-8
      string: '{"pagination":{"current_page":2,"total_pages":4,"total":8,"per_page":2,"large_set":false},"zones":[{"id":7,"name":"blue.com","group":{"id":4,"name":"Strawberries
        Group"},"created_at":1619109092,"updated_at":1619109092,"serial":1619109092,"default_ttl":3600,"external_reference":null,"verified":true,"nameservers_verified_at":1619109092,"nameservers_checked_at":null,"always_verified":false,"nameservers_verified":true,"reverse_dns":false,"stale_verification":false,"tags":["colors","com"]},{"id":8,"name":"delete-me.com","group":{"id":4,"name":"Strawberries
        Group"},"created_at":1619109092,"updated_at":1619109092,"serial":1619109092,"default_ttl":3600,"external_reference":null,"verified":true,"nameservers_verified_at":1619109092,"nameservers_checked_at":null,"always_verified":false,"nameservers_verified":true,"reverse_dns":false,"stale_verification":false,"tags":[]}]}'
  recorded_at: Thu, 22 Apr 2021 16:31:36 GMT
recorded_with: VCR 6.0.0
