---
http_interactions:
- request:
    method: get
    uri: https://dennis.dev.adam.ac/api/v1/groups/:group/zones?_arguments=%7B%22group%22:%7B%22id%22:1%7D,%22page%22:2,%22per_page%22:2%7D
    body:
      encoding: US-ASCII
      string: ''
    headers:
      Accept-Encoding:
      - gzip;q=1.0,deflate;q=0.6,identity;q=0.3
      Accept:
      - "*/*"
      User-Agent:
      - Ruby
      Authorization:
      - Bearer test
  response:
    status:
      code: 200
      message: OK
    headers:
      Access-Control-Allow-Methods:
      - "*"
      Access-Control-Allow-Origin:
      - "*"
      Cache-Control:
      - max-age=0, private, must-revalidate
      Content-Length:
      - '421'
      Content-Type:
      - application/json
      Etag:
      - W/"4d4fb0a0e3d1e32cd7069e3411008fc3"
      Server:
      - Caddy
      X-Request-Id:
      - 48ecaea2-19d4-407c-b824-2e82024f4351
      X-Runtime:
      - '0.008778'
      Date:
      - Mon, 19 Apr 2021 20:42:24 GMT
    body:
      encoding: UTF-8
      string: '{"pagination":{"current_page":2,"total_pages":2,"total":3,"per_page":2,"large_set":false},"zones":[{"id":7,"name":"potatos.com","created_at":1618864944,"updated_at":1618864944,"serial":1618864944,"default_ttl":3600,"external_reference":null,"verified":false,"nameservers_verified_at":null,"nameservers_checked_at":null,"always_verified":false,"nameservers_verified":false,"reverse_dns":false,"stale_verification":false}]}'
  recorded_at: Mon, 19 Apr 2021 20:42:24 GMT
recorded_with: VCR 6.0.0
