---
http_interactions:
- request:
    method: get
    uri: https://dennis.dev.adam.ac/api/v1/zones?_arguments=%7B%22per_page%22:2%7D
    body:
      encoding: US-ASCII
      string: ''
    headers:
      Accept-Encoding:
      - gzip;q=1.0,deflate;q=0.6,identity;q=0.3
      Accept:
      - "*/*"
      User-Agent:
      - Ruby
      Authorization:
      - Bearer test
  response:
    status:
      code: 200
      message: OK
    headers:
      Access-Control-Allow-Methods:
      - "*"
      Access-Control-Allow-Origin:
      - "*"
      Cache-Control:
      - max-age=0, private, must-revalidate
      Content-Length:
      - '831'
      Content-Type:
      - application/json
      Etag:
      - W/"c48bafcbf3eab2e1092c4cede72a687a"
      Server:
      - Caddy
      X-Request-Id:
      - 26d1de84-3da7-48a4-b2c0-c7fb292d1881
      X-Runtime:
      - '0.010458'
      Date:
      - Mon, 19 Apr 2021 20:42:24 GMT
    body:
      encoding: UTF-8
      string: '{"pagination":{"current_page":1,"total_pages":3,"total":6,"per_page":2,"large_set":false},"zones":[{"id":3,"name":"another.com","group":{"id":2,"name":"Another
        Group"},"created_at":1618864931,"updated_at":1618864931,"serial":1618864931,"default_ttl":3600,"external_reference":null,"verified":true,"nameservers_verified_at":1618864931,"nameservers_checked_at":null,"always_verified":false,"nameservers_verified":true,"reverse_dns":false,"stale_verification":false},{"id":2,"name":"bananas.com","group":{"id":1,"name":"Renamed
        Group"},"created_at":1618864931,"updated_at":1618864931,"serial":1618864931,"default_ttl":3600,"external_reference":"bananas","verified":false,"nameservers_verified_at":null,"nameservers_checked_at":null,"always_verified":false,"nameservers_verified":false,"reverse_dns":false,"stale_verification":false}]}'
  recorded_at: Mon, 19 Apr 2021 20:42:24 GMT
recorded_with: VCR 6.0.0
