---
http_interactions:
- request:
    method: get
    uri: https://dennis.dev.adam.ac/api/v1/groups/:group/zones?_arguments=%7B%22group%22:%7B%22id%22:1%7D,%22per_page%22:2%7D
    body:
      encoding: US-ASCII
      string: ''
    headers:
      Accept-Encoding:
      - gzip;q=1.0,deflate;q=0.6,identity;q=0.3
      Accept:
      - "*/*"
      User-Agent:
      - Ruby
      Authorization:
      - Bearer test
  response:
    status:
      code: 200
      message: OK
    headers:
      Access-Control-Allow-Methods:
      - "*"
      Access-Control-Allow-Origin:
      - "*"
      Cache-Control:
      - max-age=0, private, must-revalidate
      Content-Length:
      - '784'
      Content-Type:
      - application/json
      Etag:
      - W/"5542ce9044084db90b43c413607fd692"
      Server:
      - Caddy
      X-Request-Id:
      - 229c3652-ad9a-4f9c-8661-7fef4c8a212f
      X-Runtime:
      - '0.015711'
      Date:
      - Thu, 22 Apr 2021 16:31:37 GMT
    body:
      encoding: UTF-8
      string: '{"pagination":{"current_page":1,"total_pages":2,"total":3,"per_page":2,"large_set":false},"zones":[{"id":2,"name":"bananas.com","created_at":1619109092,"updated_at":1619109096,"serial":1619109096,"default_ttl":3600,"external_reference":"bananas","verified":false,"nameservers_verified_at":null,"nameservers_checked_at":1619109096,"always_verified":false,"nameservers_verified":false,"reverse_dns":false,"stale_verification":false,"tags":["fruit"]},{"id":1,"name":"example.com","created_at":1619109092,"updated_at":1619109095,"serial":1619109095,"default_ttl":3600,"external_reference":null,"verified":true,"nameservers_verified_at":1619109092,"nameservers_checked_at":null,"always_verified":false,"nameservers_verified":true,"reverse_dns":false,"stale_verification":false,"tags":[]}]}'
  recorded_at: Thu, 22 Apr 2021 16:31:37 GMT
recorded_with: VCR 6.0.0
